simulation/qsim/ula_bancoReg.msim.vcd
$comment
	File created using the following command:
		vcd file ula_bancoReg.msim.vcd -direction
$end
$date
	Thu May 20 14:10:01 2021
$end
$version
	ModelSim Version 10.1d
$end
$timescale
	1ps
$end
$scope module ula_bancoReg_vlg_vec_tst $end
$var reg 1 ! clock $end
$var reg 32 " colocaValorAux [31:0] $end
$var reg 6 # FUNCT [5:0] $end
$var reg 6 $ OPCODE [5:0] $end
$var reg 5 % Rd [4:0] $end
$var reg 1 & reset $end
$var reg 5 ' Rs [4:0] $end
$var reg 5 ( Rt [4:0] $end
$var reg 5 ) SHAMT [4:0] $end
$scope module i1 $end
$var wire 1 * gnd $end
$var wire 1 + vcc $end
$var wire 1 , unknown $end
$var tri1 1 - devclrn $end
$var tri1 1 . devpor $end
$var tri1 1 / devoe $end
$upscope $end
$upscope $end
$enddefinitions $end
#0
$dumpvars
0!
b0 "
b100000 #
b0 $
b0 %
0&
b0 '
b0 (
b0 )
0*
1+
x,
1-
1.
1/
$end
#5000
1!
#10000
b0 #
b1 #
0!
#15000
1!
#20000
0!
#25000
1!
#30000
0!
#35000
1!
#40000
b1 %
b1 '
b1 (
b100001 #
b100000 #
0!
#45000
1!
#50000
b0 #
b1 #
0!
#55000
1!
#60000
0!
#65000
1!
#70000
b11 #
b11 %
b10 %
b0 '
b10 #
0!
#75000
1!
#80000
b10 '
b0 #
b0 %
0!
#85000
1!
#90000
1&
0!
#95000
1!
#100000
0&
0!
#105000
1!
#110000
b0 (
b0 '
0!
#115000
1!
#120000
b100000 #
0!
#125000
1!
#130000
b101000 #
b1000 #
0!
#135000
1!
#140000
b11000 #
b1 '
b10000 #
0!
#145000
1!
#150000
b10100 #
b100 #
b0 '
0!
#155000
1!
#160000
b0 #
0!
