simulation/qsim/ula_bancoReg.msim.vcd
$comment
	File created using the following command:
		vcd file ula_bancoReg.msim.vcd -direction
$end
$date
	Mon Jun 07 21:25:05 2021
$end
$version
	ModelSim Version 10.1d
$end
$timescale
	1ps
$end
$scope module multiplexador_sequencial_8bits_vlg_vec_tst $end
$var reg 1 ! clk $end
$var reg 8 " MD [7:0] $end
$var reg 8 # MR [7:0] $end
$var reg 1 $ reset $end
$var wire 1 % PR [15] $end
$var wire 1 & PR [14] $end
$var wire 1 ' PR [13] $end
$var wire 1 ( PR [12] $end
$var wire 1 ) PR [11] $end
$var wire 1 * PR [10] $end
$var wire 1 + PR [9] $end
$var wire 1 , PR [8] $end
$var wire 1 - PR [7] $end
$var wire 1 . PR [6] $end
$var wire 1 / PR [5] $end
$var wire 1 0 PR [4] $end
$var wire 1 1 PR [3] $end
$var wire 1 2 PR [2] $end
$var wire 1 3 PR [1] $end
$var wire 1 4 PR [0] $end
$var wire 1 5 sampler $end
$scope module i1 $end
$var wire 1 6 gnd $end
$var wire 1 7 vcc $end
$var wire 1 8 unknown $end
$var tri1 1 9 devclrn $end
$var tri1 1 : devpor $end
$var tri1 1 ; devoe $end
$var wire 1 < ESTATO_ATUAL.s8~regout $end
$var wire 1 = ESTATO_ATUAL.S7~regout $end
$var wire 1 > ESTATO_ATUAL.S6~regout $end
$var wire 1 ? ESTATO_ATUAL.S5~regout $end
$var wire 1 @ ESTATO_ATUAL.S4~regout $end
$var wire 1 A ESTATO_ATUAL.S3~regout $end
$var wire 1 B ESTATO_ATUAL.S2~regout $end
$var wire 1 C clk~combout $end
$var wire 1 D SOMADOR|G1:0:SCs|cout~0_combout $end
$var wire 1 E SOMADOR|G1:1:SCs|cout~0_combout $end
$var wire 1 F SOMADOR|G1:2:SCs|cout~0_combout $end
$var wire 1 G SOMADOR|G1:3:SCs|cout~0_combout $end
$var wire 1 H SOMADOR|G1:4:SCs|cout~0_combout $end
$var wire 1 I SOMADOR|G1:5:SCs|cout~0_combout $end
$var wire 1 J SOMADOR|G1:6:SCs|cout~0_combout $end
$var wire 1 K SOMADOR|G1:7:SCs|cout~0_combout $end
$var wire 1 L reset~combout $end
$var wire 1 M ESTATO_ATUAL.S1~0_combout $end
$var wire 1 N ESTATO_ATUAL.S1~regout $end
$var wire 1 O ESTATO_ATUAL.S0~0_combout $end
$var wire 1 P ESTATO_ATUAL.S0~regout $end
$var wire 1 Q WideOr0~0_combout $end
$var wire 1 R enable~combout $end
$var wire 1 S SOMADOR|G1:7:SCs|s~0_combout $end
$var wire 1 T SOMADOR|G1:6:SCs|s~0_combout $end
$var wire 1 U SOMADOR|G1:5:SCs|s~0_combout $end
$var wire 1 V SOMADOR|G1:4:SCs|s~0_combout $end
$var wire 1 W SOMADOR|G1:3:SCs|s~0_combout $end
$var wire 1 X SOMADOR|G1:2:SCs|s~0_combout $end
$var wire 1 Y SOMADOR|G1:1:SCs|s~combout $end
$var wire 1 Z SOMADOR|G1:0:SCs|s~0_combout $end
$var wire 1 [ REG_SHIFT|Q_TEMP~6_combout $end
$var wire 1 \ REG_SHIFT|Q_TEMP~5_combout $end
$var wire 1 ] REG_SHIFT|Q_TEMP~4_combout $end
$var wire 1 ^ REG_SHIFT|Q_TEMP~3_combout $end
$var wire 1 _ REG_SHIFT|Q_TEMP~2_combout $end
$var wire 1 ` REG_SHIFT|Q_TEMP~1_combout $end
$var wire 1 a REG_SHIFT|Q_TEMP~0_combout $end
$var wire 1 b REG_SHIFT|Q_TEMP [15] $end
$var wire 1 c REG_SHIFT|Q_TEMP [14] $end
$var wire 1 d REG_SHIFT|Q_TEMP [13] $end
$var wire 1 e REG_SHIFT|Q_TEMP [12] $end
$var wire 1 f REG_SHIFT|Q_TEMP [11] $end
$var wire 1 g REG_SHIFT|Q_TEMP [10] $end
$var wire 1 h REG_SHIFT|Q_TEMP [9] $end
$var wire 1 i REG_SHIFT|Q_TEMP [8] $end
$var wire 1 j REG_SHIFT|Q_TEMP [7] $end
$var wire 1 k REG_SHIFT|Q_TEMP [6] $end
$var wire 1 l REG_SHIFT|Q_TEMP [5] $end
$var wire 1 m REG_SHIFT|Q_TEMP [4] $end
$var wire 1 n REG_SHIFT|Q_TEMP [3] $end
$var wire 1 o REG_SHIFT|Q_TEMP [2] $end
$var wire 1 p REG_SHIFT|Q_TEMP [1] $end
$var wire 1 q REG_SHIFT|Q_TEMP [0] $end
$var wire 1 r MR~combout [7] $end
$var wire 1 s MR~combout [6] $end
$var wire 1 t MR~combout [5] $end
$var wire 1 u MR~combout [4] $end
$var wire 1 v MR~combout [3] $end
$var wire 1 w MR~combout [2] $end
$var wire 1 x MR~combout [1] $end
$var wire 1 y MR~combout [0] $end
$var wire 1 z MD~combout [7] $end
$var wire 1 { MD~combout [6] $end
$var wire 1 | MD~combout [5] $end
$var wire 1 } MD~combout [4] $end
$var wire 1 ~ MD~combout [3] $end
$var wire 1 !! MD~combout [2] $end
$var wire 1 "! MD~combout [1] $end
$var wire 1 #! MD~combout [0] $end
$upscope $end
$upscope $end
$enddefinitions $end
#0
$dumpvars
0!
b0 "
b0 #
1$
04
03
02
01
00
0/
0.
0-
0,
0+
0*
0)
0(
0'
0&
0%
x5
06
17
x8
19
1:
1;
0<
0=
0>
0?
0@
0A
0B
0C
0D
0E
0F
0G
0H
0I
0J
0K
1L
1M
0N
1O
0P
1Q
1R
0S
0T
0U
0V
0W
0X
0Y
0Z
0[
0\
0]
0^
0_
0`
0a
0q
0p
0o
0n
0m
0l
0k
0j
0i
0h
0g
0f
0e
0d
0c
0b
0y
0x
0w
0v
0u
0t
0s
0r
0#!
0"!
0!!
0~
0}
0|
0{
0z
$end
#5000
1!
1C
05
#10000
b10 "
b11 "
b10 #
b11 #
0$
0!
1y
1x
1#!
1"!
0L
0C
15
1a
1`
#15000
1!
1C
05
1q
1p
1P
1N
1Z
1Y
0M
0R
14
13
0`
#20000
0!
0C
15
#25000
1!
1C
05
0p
1j
1i
0N
1B
0a
1[
0Z
1D
1R
0Q
03
1-
1,
0Y
1E
1a
1`
0[
1X
#30000
0!
0C
15
#35000
1!
1C
05
1p
0j
0i
0B
1A
1Z
0D
13
0-
0,
1Y
0E
0X
#40000
0!
0C
15
#45000
1!
1C
05
0A
1@
#50000
0!
0C
15
#55000
1!
1C
05
0@
1?
#60000
0!
0C
15
#65000
1!
1C
05
0?
1>
#70000
0!
0C
15
#75000
1!
1C
05
0>
1=
#80000
0!
0C
15
#85000
1!
1C
05
0=
1<
0O
#90000
0!
0C
15
#95000
1!
1C
05
0P
0<
1Q
1M
1O
#100000
0!
0C
15
#105000
1!
1C
05
1P
1N
0M
0R
0`
#110000
0!
0C
15
#115000
1!
1C
05
0p
1j
1i
0N
1B
0a
1[
0Z
1D
1R
0Q
03
1-
1,
0Y
1E
1a
1`
0[
1X
#120000
0!
0C
15
#125000
1!
1C
05
1p
0j
0i
0B
1A
1Z
0D
13
0-
0,
1Y
0E
0X
#130000
0!
0C
15
#135000
1!
1C
05
0A
1@
#140000
0!
0C
15
#145000
1!
1C
05
0@
1?
#150000
0!
0C
15
#155000
1!
1C
05
0?
1>
#160000
0!
0C
15
#165000
1!
1C
05
0>
1=
#170000
0!
0C
15
#175000
1!
1C
05
0=
1<
0O
#180000
0!
0C
15
#185000
1!
1C
05
0P
0<
1Q
1M
1O
#190000
0!
0C
15
#195000
1!
1C
05
1P
1N
0M
0R
0`
#200000
0!
0C
15
#205000
1!
1C
05
0p
1j
1i
0N
1B
0a
1[
0Z
1D
1R
0Q
03
1-
1,
0Y
1E
1a
1`
0[
1X
#210000
0!
0C
15
#215000
1!
1C
05
1p
0j
0i
0B
1A
1Z
0D
13
0-
0,
1Y
0E
0X
#220000
0!
0C
15
#225000
1!
1C
05
0A
1@
#230000
0!
0C
15
#235000
1!
1C
05
0@
1?
#240000
0!
0C
15
#245000
1!
1C
05
0?
1>
#250000
0!
0C
15
#255000
1!
1C
05
0>
1=
#260000
0!
0C
15
#265000
1!
1C
05
0=
1<
0O
#270000
0!
0C
15
#275000
1!
1C
05
0P
0<
1Q
1M
1O
#280000
0!
0C
15
#285000
1!
1C
05
1P
1N
0M
0R
0`
#290000
0!
0C
15
#295000
1!
1C
05
0p
1j
1i
0N
1B
0a
1[
0Z
1D
1R
0Q
03
1-
1,
0Y
1E
1a
1`
0[
1X
#300000
0!
0C
15
#305000
1!
1C
05
1p
0j
0i
0B
1A
1Z
0D
13
0-
0,
1Y
0E
0X
#310000
0!
0C
15
#315000
1!
1C
05
0A
1@
#320000
0!
0C
15
#325000
1!
1C
05
0@
1?
#330000
0!
0C
15
#335000
1!
1C
05
0?
1>
#340000
0!
0C
15
#345000
1!
1C
05
0>
1=
#350000
0!
0C
15
#355000
1!
1C
05
0=
1<
0O
#360000
0!
0C
15
#365000
1!
1C
05
0P
0<
1Q
1M
1O
#370000
0!
0C
15
#375000
1!
1C
05
1P
1N
0M
0R
0`
#380000
0!
0C
15
#385000
1!
1C
05
0p
1j
1i
0N
1B
0a
1[
0Z
1D
1R
0Q
03
1-
1,
0Y
1E
1a
1`
0[
1X
#390000
0!
0C
15
#395000
1!
1C
05
1p
0j
0i
0B
1A
1Z
0D
13
0-
0,
1Y
0E
0X
#400000
0!
0C
15
#405000
1!
1C
05
0A
1@
#410000
0!
0C
15
#415000
1!
1C
05
0@
1?
#420000
0!
0C
15
#425000
1!
1C
05
0?
1>
#430000
0!
0C
15
#435000
1!
1C
05
0>
1=
#440000
0!
0C
15
#445000
1!
1C
05
0=
1<
0O
#450000
0!
0C
15
#455000
1!
1C
05
0P
0<
1Q
1M
1O
#460000
0!
0C
15
#465000
1!
1C
05
1P
1N
0M
0R
0`
#470000
0!
0C
15
#475000
1!
1C
05
0p
1j
1i
0N
1B
0a
1[
0Z
1D
1R
0Q
03
1-
1,
0Y
1E
1a
1`
0[
1X
#480000
0!
0C
15
#485000
1!
1C
05
1p
0j
0i
0B
1A
1Z
0D
13
0-
0,
1Y
0E
0X
#490000
0!
0C
15
#495000
1!
1C
05
0A
1@
#500000
0!
0C
15
#505000
1!
1C
05
0@
1?
#510000
0!
0C
15
#515000
1!
1C
05
0?
1>
#520000
0!
0C
15
#525000
1!
1C
05
0>
1=
#530000
0!
0C
15
#535000
1!
1C
05
0=
1<
0O
#540000
0!
0C
15
#545000
1!
1C
05
0P
0<
1Q
1M
1O
#550000
0!
0C
15
#555000
1!
1C
05
1P
1N
0M
0R
0`
#560000
0!
0C
15
#565000
1!
1C
05
0p
1j
1i
0N
1B
0a
1[
0Z
1D
1R
0Q
03
1-
1,
0Y
1E
1a
1`
0[
1X
#570000
0!
0C
15
#575000
1!
1C
05
1p
0j
0i
0B
1A
1Z
0D
13
0-
0,
1Y
0E
0X
#580000
0!
0C
15
#585000
1!
1C
05
0A
1@
#590000
0!
0C
15
#595000
1!
1C
05
0@
1?
#600000
0!
0C
15
#605000
1!
1C
05
0?
1>
#610000
0!
0C
15
#615000
1!
1C
05
0>
1=
#620000
0!
0C
15
#625000
1!
1C
05
0=
1<
0O
#630000
0!
0C
15
#635000
1!
1C
05
0P
0<
1Q
1M
1O
#640000
0!
0C
15
#645000
1!
1C
05
1P
1N
0M
0R
0`
#650000
0!
0C
15
#655000
1!
1C
05
0p
1j
1i
0N
1B
0a
1[
0Z
1D
1R
0Q
03
1-
1,
0Y
1E
1a
1`
0[
1X
#660000
0!
0C
15
#665000
1!
1C
05
1p
0j
0i
0B
1A
1Z
0D
13
0-
0,
1Y
0E
0X
#670000
0!
0C
15
#675000
1!
1C
05
0A
1@
#680000
0!
0C
15
#685000
1!
1C
05
0@
1?
#690000
0!
0C
15
#695000
1!
1C
05
0?
1>
#700000
0!
0C
15
#705000
1!
1C
05
0>
1=
#710000
0!
0C
15
#715000
1!
1C
05
0=
1<
0O
#720000
0!
0C
15
#725000
1!
1C
05
0P
0<
1Q
1M
1O
#730000
0!
0C
15
#735000
1!
1C
05
1P
1N
0M
0R
0`
#740000
0!
0C
15
#745000
1!
1C
05
0p
1j
1i
0N
1B
0a
1[
0Z
1D
1R
0Q
03
1-
1,
0Y
1E
1a
1`
0[
1X
#750000
0!
0C
15
#755000
1!
1C
05
1p
0j
0i
0B
1A
1Z
0D
13
0-
0,
1Y
0E
0X
#760000
0!
0C
15
#765000
1!
1C
05
0A
1@
#770000
0!
0C
15
#775000
1!
1C
05
0@
1?
#780000
0!
0C
15
#785000
1!
1C
05
0?
1>
#790000
0!
0C
15
#795000
1!
1C
05
0>
1=
#800000
0!
0C
15
#805000
1!
1C
05
0=
1<
0O
#810000
0!
0C
15
#815000
1!
1C
05
0P
0<
1Q
1M
1O
#820000
0!
0C
15
#825000
1!
1C
05
1P
1N
0M
0R
0`
#830000
0!
0C
15
#835000
1!
1C
05
0p
1j
1i
0N
1B
0a
1[
0Z
1D
1R
0Q
03
1-
1,
0Y
1E
1a
1`
0[
1X
#840000
0!
0C
15
#845000
1!
1C
05
1p
0j
0i
0B
1A
1Z
0D
13
0-
0,
1Y
0E
0X
#850000
0!
0C
15
#855000
1!
1C
05
0A
1@
#860000
0!
0C
15
#865000
1!
1C
05
0@
1?
#870000
0!
0C
15
#875000
1!
1C
05
0?
1>
#880000
0!
0C
15
#885000
1!
1C
05
0>
1=
#890000
0!
0C
15
#895000
1!
1C
05
0=
1<
0O
#900000
0!
0C
15
#905000
1!
1C
05
0P
0<
1Q
1M
1O
#910000
0!
0C
15
#915000
1!
1C
05
1P
1N
0M
0R
0`
#920000
0!
0C
15
#925000
1!
1C
05
0p
1j
1i
0N
1B
0a
1[
0Z
1D
1R
0Q
03
1-
1,
0Y
1E
1a
1`
0[
1X
#930000
0!
0C
15
#935000
1!
1C
05
1p
0j
0i
0B
1A
1Z
0D
13
0-
0,
1Y
0E
0X
#940000
0!
0C
15
#945000
1!
1C
05
0A
1@
#950000
0!
0C
15
#955000
1!
1C
05
0@
1?
#960000
0!
0C
15
#965000
1!
1C
05
0?
1>
#970000
0!
0C
15
#975000
1!
1C
05
0>
1=
#980000
0!
0C
15
#985000
1!
1C
05
0=
1<
0O
#990000
0!
0C
15
#995000
1!
1C
05
0P
0<
1Q
1M
1O
